5 Lab 9 — December 1 | Stat 3553: Regression Modelling
…
5.2.4 Visualising the fit

Since our data is quite small, unlike with straight line fits where we can just proceed to connect
the dots and still obtain a straight line, here, we need to supplement our data with a sufficient
number of grid points to get as close as possible to the true shape of the predicted curve.

fitted_vals <- full_model %>%
  predict(newdata = tibble(current=seq(0, 5, 0.01)), type="response") %>%
  as_tibble_col(column_name=".fitted") %>%
  add_column(current=seq(0, 5, 0.01), .before=".fitted")

fitted_vals

## # A tibble: 501 x 2
##    current .fitted
##      <dbl>   <dbl>
##  1    0     0.0430
##  2    0.01  0.0435
##  3    0.02  0.0440
##  4    0.03  0.0445
##  5    0.04  0.0450
##  6    0.05  0.0455
##  7    0.06  0.0460
##  8    0.07  0.0466
##  9    0.08  0.0471
## 10    0.09  0.0476
## # ... with 491 more rows
…
