3 Lab 5 — October 13 | Stat 3553: Regression Modelling
…
penguins <- palmerpenguins::penguins %>%
  drop_na() %>%
  rename(
    bill_length = bill_length_mm,
    bill_depth = bill_depth_mm,
    flipper_length = flipper_length_mm,
    body_mass = body_mass_g
  )

penguins

## # A tibble: 333 x 8
##    species island    bill_length bill_depth flipper_length body_mass sex    year
##    <fct>   <fct>           <dbl>      <dbl>          <int>     <int> <fct> <int>
##  1 Adelie  Torgersen        39.1       18.7            181      3750 male   2007
##  2 Adelie  Torgersen        39.5       17.4            186      3800 fema~  2007
##  3 Adelie  Torgersen        40.3       18              195      3250 fema~  2007
##  4 Adelie  Torgersen        36.7       19.3            193      3450 fema~  2007
##  5 Adelie  Torgersen        39.3       20.6            190      3650 male   2007
##  6 Adelie  Torgersen        38.9       17.8            181      3625 fema~  2007
##  7 Adelie  Torgersen        39.2       19.6            195      4675 male   2007
##  8 Adelie  Torgersen        41.1       17.6            182      3200 fema~  2007
##  9 Adelie  Torgersen        38.6       21.2            191      3800 male   2007
## 10 Adelie  Torgersen        34.6       21.1            198      4400 male   2007
## # ... with 323 more rows
…
Suppose we are interested in constructing a 90% confidence region for \((\beta_{0}, \beta_{1})\) with
individual 95% confidence intervals. We can start by obtaining the path of this ellipse by passing
our linear model to ellipse(). The default confidence level for the ellipse is 95% so we need to
make a slight adjustment to the value of the level parameter. In addition, ellipse() returns a
matrix of coordinates for the path of the ellipse. Since we'll be passing the coordinates of the
path of the ellipse to ggplot later, we should also convert it to a data frame.

ellipse_path <- slr_rock %>%
  ellipse(level=0.90) %>%
  as_tibble()

ellipse_path

## # A tibble: 100 x 2
##    `(Intercept)`  peri
##            <dbl> <dbl>
##  1         3305.  1.63
##  2         3239.  1.65
##  3         3174.  1.67
##  4         3107.  1.69
##  5         3041.  1.71
##  6         2974.  1.73
##  7         2908.  1.74
##  8         2842.  1.76
##  9         2777.  1.78
## 10         2714.  1.79
## # ... with 90 more rows
…
