2 Lab 3 — September 29 | Stat 3553: Regression Modelling
…
2.2.4 Visualising the fit

Here is where ggplot2 and broom
shine! We first use broom::augment() on our linear model to extract the data that was used to
fit the model, along with additional diagnostics (such as the residuals). Note that
broom::augment() is a generic function. When we pass our lm object to broom::augment(), under
the hood, it actually calls the more specific broom::augment.lm() function.

lm_miles_aug <- augment(lm_miles)

lm_miles_aug

## # A tibble: 234 x 8
##      hwy   cty .fitted .resid    .hat .sigma     .cooksd .std.resid
##    <int> <int>   <dbl>  <dbl>   <dbl>  <dbl>       <dbl>      <dbl>
##  1    29    18    25.0 4.03   0.00458   1.74 0.0123          2.31  
##  2    29    21    29.0 0.0214 0.00834   1.76 0.000000632     0.0123
##  3    31    20    27.6 3.36   0.00661   1.74 0.0123          1.92  
##  4    30    21    29.0 1.02   0.00834   1.75 0.00144         0.585 
##  5    26    16    22.3 3.71   0.00445   1.74 0.0101          2.12  
##  6    26    18    25.0 1.03   0.00458   1.75 0.000805        0.591 
##  7    27    18    25.0 2.03   0.00458   1.75 0.00311         1.16  
##  8    26    18    25.0 1.03   0.00458   1.75 0.000805        0.591 
##  9    25    16    22.3 2.71   0.00445   1.75 0.00536         1.55  
## 10    28    20    27.6 0.359  0.00661   1.76 0.000140        0.205 
## # ... with 224 more rows
…
where \(\widehat{y}_{i}\) is the sum of the log highway miles per gallon and the log city miles per
gallon. Due to how the model was constructed, if I wanted to predict the sum of the log highway
miles per gallon and the log city highway miles per gallon for a particular vehicle, I would supply
displacement values as-is and the model would square them for me.

2.4.1 Visualise the fit

We can visualise the fit using the same procedure as before by first augmenting our linear model.

lm_log_miles_aug <- augment(lm_log_miles)

lm_log_miles_aug

## # A tibble: 234 x 7
##    mpg_sum `I(displ^2)` .fitted    .hat .sigma    .cooksd .std.resid
##      <dbl>     <I<dbl>>   <dbl>   <dbl>  <dbl>      <dbl>      <dbl>
##  1    6.26         3.24    6.32 0.00914  0.333 0.000162      -0.187 
##  2    6.41         3.24    6.32 0.00914  0.333 0.000359       0.279 
##  3    6.43         4       6.29 0.00846  0.333 0.000758       0.421 
##  4    6.45         4       6.29 0.00846  0.333 0.000941       0.470 
##  5    6.03         7.84    6.14 0.00580  0.333 0.000330      -0.336 
##  6    6.15         7.84    6.14 0.00580  0.333 0.00000106     0.0191
##  7    6.19         9.61    6.07 0.00502  0.333 0.000290       0.339 
##  8    6.15         3.24    6.32 0.00914  0.333 0.00123       -0.517 
##  9    5.99         3.24    6.32 0.00914  0.332 0.00454       -0.992 
## 10    6.33         4       6.29 0.00846  0.333 0.0000553      0.114 
## # ... with 224 more rows
…
