4 Lab 7 — November 10 | Stat 3553: Regression Modelling
…
The value of \(\widehat{\beta}_{0}\) has increased (not by much)

The value of \(\widehat{\beta}_{1}\) has decreased (not by much)

The differences are more apparent when adjusting weights to the 23rd observation of this data set.
Hint: make a scatterplot!

First, let's add a column of indices to the data.

table2.1 <- table2.1 %>%
  mutate(obs = 1:n(), .before = everything())

table2.1

## # A tibble: 23 x 3
##      obs     Y     X
##    <int> <dbl> <dbl>
##  1     1   2.3   1.3
##  2     2   1.8   1.3
##  3     3   2.8   2  
##  4     4   1.5   2  
##  5     5   2.2   2.7
##  6     6   3.8   3.3
##  7     7   1.8   3.3
##  8     8   3.7   3.7
##  9     9   1.7   3.7
## 10    10   2.8   4  
## # ... with 13 more rows
…
